How R helped me with time motion analysis
…
count: false
# How to collect data for time motion study

---
count: false
# How to collect data for time motion study

```
# A tibble: 5,442 x 4
   .order handling     registration_type time               
    <int> <fct>        <fct>             <dttm>             
 1      1 Registration start             2017-01-02 11:41:53
 2      2 Registration start             2017-01-02 11:41:53
 3      3 Registration start             2017-01-04 01:34:05
 4      4 Registration start             2017-01-04 01:34:04
 5      5 Registration start             2017-01-04 16:07:47
 6      6 Registration start             2017-01-04 16:07:47
 7      7 Registration start             2017-01-05 04:56:11
 8      8 Registration start             2017-01-05 04:56:11
 9      9 Registration start             2017-01-06 05:58:54
10     10 Registration start             2017-01-06 05:58:54
# ... with 5,432 more rows
```

---
count: false
# How to collect data for time motion study

```
# A tibble: 5,442 x 5
   .order handling     registration_type time                patient
    <int> <fct>        <fct>             <dttm>              <chr>  
 1      1 Registration start             2017-01-02 11:41:53 1      
 2      2 Registration start             2017-01-02 11:41:53 2      
 3      3 Registration start             2017-01-04 01:34:05 3      
 4      4 Registration start             2017-01-04 01:34:04 4      
 5      5 Registration start             2017-01-04 16:07:47 5      
 6      6 Registration start             2017-01-04 16:07:47 6      
 7      7 Registration start             2017-01-05 04:56:11 7      
 8      8 Registration start             2017-01-05 04:56:11 8      
 9      9 Registration start             2017-01-06 05:58:54 9      
10     10 Registration start             2017-01-06 05:58:54 10     
# ... with 5,432 more rows
```

---
count: false
# How to collect data for time motion study

```
# A tibble: 5,442 x 6
   .order handling     registration_type time                patient employee
    <int> <fct>        <fct>             <dttm>              <chr>   <fct>   
 1      1 Registration start             2017-01-02 11:41:53 1       r1      
 2      2 Registration start             2017-01-02 11:41:53 2       r1      
 3      3 Registration start             2017-01-04 01:34:05 3       r1      
 4      4 Registration start             2017-01-04 01:34:04 4       r1      
 5      5 Registration start             2017-01-04 16:07:47 5       r1      
 6      6 Registration start             2017-01-04 16:07:47 6       r1      
 7      7 Registration start             2017-01-05 04:56:11 7       r1      
 8      8 Registration start             2017-01-05 04:56:11 8       r1      
 9      9 Registration start             2017-01-06 05:58:54 9       r1      
10     10 Registration start             2017-01-06 05:58:54 10      r1      
# ... with 5,432 more rows
```
…
Variables were mapped as follows:
Case identifier:		patient 
Activity identifier:		handling 
Resource identifier:		employee 
Activity instance identifier:	handling_id 
Timestamp:			time 
Lifecycle transition:		registration_type 

# A tibble: 5,442 x 7
   handling    patient employee handling_id registration_ty~ time               
   <fct>       <chr>   <fct>    <chr>       <fct>            <dttm>             
 1 Registrati~ 1       r1       1           start            2017-01-02 11:41:53
 2 Registrati~ 2       r1       2           start            2017-01-02 11:41:53
 3 Registrati~ 3       r1       3           start            2017-01-04 01:34:05
 4 Registrati~ 4       r1       4           start            2017-01-04 01:34:04
 5 Registrati~ 5       r1       5           start            2017-01-04 16:07:47
 6 Registrati~ 6       r1       6           start            2017-01-04 16:07:47
 7 Registrati~ 7       r1       7           start            2017-01-05 04:56:11
 8 Registrati~ 8       r1       8           start            2017-01-05 04:56:11
 9 Registrati~ 9       r1       9           start            2017-01-06 05:58:54
10 Registrati~ 10      r1       10          start            2017-01-06 05:58:54
# ... with 5,432 more rows, and 1 more variable: .order <int>
```
…
Variables were mapped as follows:
Case identifier:		patient 
Activity identifier:		handling 
Resource identifier:		employee 
Activity instance identifier:	handling_id 
Timestamp:			time 
Lifecycle transition:		registration_type 

# A tibble: 2,828 x 7
   handling    patient employee handling_id registration_ty~ time               
   <fct>       <chr>   <fct>    <chr>       <fct>            <dttm>             
 1 Registrati~ 1       r1       1           start            2017-01-02 11:41:53
 2 Registrati~ 3       r1       3           start            2017-01-04 01:34:05
 3 Registrati~ 4       r1       4           start            2017-01-04 01:34:04
 4 Registrati~ 6       r1       6           start            2017-01-04 16:07:47
 5 Registrati~ 7       r1       7           start            2017-01-05 04:56:11
 6 Registrati~ 12      r1       12          start            2017-01-08 18:38:19
 7 Registrati~ 13      r1       13          start            2017-01-12 09:35:16
 8 Registrati~ 15      r1       15          start            2017-01-13 12:09:49
 9 Registrati~ 16      r1       16          start            2017-01-13 12:09:49
10 Registrati~ 20      r1       20          start            2017-01-17 22:07:01
# ... with 2,818 more rows, and 1 more variable: .order <int>
```
…
Variables were mapped as follows:
Case identifier:		patient 
Activity identifier:		handling 
Resource identifier:		employee 
Activity instance identifier:	handling_id 
Timestamp:			time 
Lifecycle transition:		registration_type 

# A tibble: 5,442 x 7
   handling    patient employee handling_id registration_ty~ time               
   <fct>       <chr>   <fct>    <chr>       <fct>            <dttm>             
 1 Registrati~ 1       r1       1           start            2017-01-02 11:41:53
 2 Registrati~ 2       r1       2           start            2017-01-02 11:41:53
 3 Registrati~ 3       r1       3           start            2017-01-04 01:34:05
 4 Registrati~ 4       r1       4           start            2017-01-04 01:34:04
 5 Registrati~ 5       r1       5           start            2017-01-04 16:07:47
 6 Registrati~ 6       r1       6           start            2017-01-04 16:07:47
 7 Registrati~ 7       r1       7           start            2017-01-05 04:56:11
 8 Registrati~ 8       r1       8           start            2017-01-05 04:56:11
 9 Registrati~ 9       r1       9           start            2017-01-06 05:58:54
10 Registrati~ 10      r1       10          start            2017-01-06 05:58:54
# ... with 5,432 more rows, and 1 more variable: .order <int>
```
…
Variables were mapped as follows:
Case identifier:		patient 
Activity identifier:		handling 
Resource identifier:		employee 
Activity instance identifier:	handling_id 
Timestamp:			time 
Lifecycle transition:		registration_type 

# A tibble: 2,614 x 7
   handling    patient employee handling_id registration_ty~ time               
   <fct>       <chr>   <fct>    <chr>       <fct>            <dttm>             
 1 Registrati~ 2       r1       2           start            2017-01-02 11:41:53
 2 Registrati~ 5       r1       5           start            2017-01-04 16:07:47
 3 Registrati~ 8       r1       8           start            2017-01-05 04:56:11
 4 Registrati~ 9       r1       9           start            2017-01-06 05:58:54
 5 Registrati~ 10      r1       10          start            2017-01-06 05:58:54
 6 Registrati~ 11      r1       11          start            2017-01-08 18:38:19
 7 Registrati~ 14      r1       14          start            2017-01-12 09:35:16
 8 Registrati~ 17      r1       17          start            2017-01-16 00:42:38
 9 Registrati~ 18      r1       18          start            2017-01-16 00:42:38
10 Registrati~ 19      r1       19          start            2017-01-17 22:07:01
# ... with 2,604 more rows, and 1 more variable: .order <int>
```
…
Variables were mapped as follows:
Case identifier:		patient 
Activity identifier:		handling 
Resource identifier:		employee 
Activity instance identifier:	handling_id 
Timestamp:			time 
Lifecycle transition:		registration_type 

# A tibble: 5,442 x 7
   handling    patient employee handling_id registration_ty~ time               
   <fct>       <chr>   <fct>    <chr>       <fct>            <dttm>             
 1 Registrati~ 1       r1       1           start            2017-01-02 11:41:53
 2 Registrati~ 2       r1       2           start            2017-01-02 11:41:53
 3 Registrati~ 3       r1       3           start            2017-01-04 01:34:05
 4 Registrati~ 4       r1       4           start            2017-01-04 01:34:04
 5 Registrati~ 5       r1       5           start            2017-01-04 16:07:47
 6 Registrati~ 6       r1       6           start            2017-01-04 16:07:47
 7 Registrati~ 7       r1       7           start            2017-01-05 04:56:11
 8 Registrati~ 8       r1       8           start            2017-01-05 04:56:11
 9 Registrati~ 9       r1       9           start            2017-01-06 05:58:54
10 Registrati~ 10      r1       10          start            2017-01-06 05:58:54
# ... with 5,432 more rows, and 1 more variable: .order <int>
```
…
