A minimal flipbook
…
count: false
# How to collect data for time motion study

---
count: false
# How to collect data for time motion study

```
# A tibble: 5,442 x 4
   .order handling     registration_type time               
    <int> <fct>        <fct>             <dttm>             
 1      1 Registration start             2017-01-02 11:41:53
 2      2 Registration start             2017-01-02 11:41:53
 3      3 Registration start             2017-01-04 01:34:05
 4      4 Registration start             2017-01-04 01:34:04
 5      5 Registration start             2017-01-04 16:07:47
 6      6 Registration start             2017-01-04 16:07:47
 7      7 Registration start             2017-01-05 04:56:11
 8      8 Registration start             2017-01-05 04:56:11
 9      9 Registration start             2017-01-06 05:58:54
10     10 Registration start             2017-01-06 05:58:54
# ... with 5,432 more rows
```

---
count: false
# How to collect data for time motion study

```
# A tibble: 5,442 x 5
   .order handling     registration_type time                patient
    <int> <fct>        <fct>             <dttm>              <chr>  
 1      1 Registration start             2017-01-02 11:41:53 1      
 2      2 Registration start             2017-01-02 11:41:53 2      
 3      3 Registration start             2017-01-04 01:34:05 3      
 4      4 Registration start             2017-01-04 01:34:04 4      
 5      5 Registration start             2017-01-04 16:07:47 5      
 6      6 Registration start             2017-01-04 16:07:47 6      
 7      7 Registration start             2017-01-05 04:56:11 7      
 8      8 Registration start             2017-01-05 04:56:11 8      
 9      9 Registration start             2017-01-06 05:58:54 9      
10     10 Registration start             2017-01-06 05:58:54 10     
# ... with 5,432 more rows
```

---
count: false
# How to collect data for time motion study

```
# A tibble: 5,442 x 6
   .order handling     registration_type time                patient employee
    <int> <fct>        <fct>             <dttm>              <chr>   <fct>   
 1      1 Registration start             2017-01-02 11:41:53 1       r1      
 2      2 Registration start             2017-01-02 11:41:53 2       r1      
 3      3 Registration start             2017-01-04 01:34:05 3       r1      
 4      4 Registration start             2017-01-04 01:34:04 4       r1      
 5      5 Registration start             2017-01-04 16:07:47 5       r1      
 6      6 Registration start             2017-01-04 16:07:47 6       r1      
 7      7 Registration start             2017-01-05 04:56:11 7       r1      
 8      8 Registration start             2017-01-05 04:56:11 8       r1      
 9      9 Registration start             2017-01-06 05:58:54 9       r1      
10     10 Registration start             2017-01-06 05:58:54 10      r1      
# ... with 5,432 more rows
```
…
